classify_all
{Error: File:
/home/z/Documents/Docs/ucl/individual_project_[and_theory]/code/ml/classify_all.m
Line: 23 Column: 1
Illegal use of reserved keyword "end".
} 
classify_all
{Undefined variable "application_configs" or class "application_configs.patch_range".

Error in classify_all (line 2)
patch_range = application_configs.patch_range;
} 
classify_all
Elapsed time is 12.522477 seconds.
patch size: 8 num training data 500
accuracy: 0.491
 
Elapsed time is 11.743370 seconds.
patch size: 8 num training data 2000
accuracy: 0.496
 
Elapsed time is 11.916088 seconds.
patch size: 8 num training data 5000
accuracy: 0.517
 
Elapsed time is 12.120945 seconds.
patch size: 8 num training data 10000
accuracy: 0.526
 
Elapsed time is 12.119654 seconds.
patch size: 8 num training data 15000
accuracy: 0.506
 
Elapsed time is 11.802131 seconds.
patch size: 8 num training data 20000
accuracy: 0.524
 
Elapsed time is 11.709334 seconds.
patch size: 8 num training data 30000
accuracy: 0.513
 
Elapsed time is 11.755431 seconds.
patch size: 8 num training data 35000
accuracy: 0.515
 
Elapsed time is 11.707139 seconds.
patch size: 16 num training data 500
accuracy: 0.512
 
Elapsed time is 11.718202 seconds.
patch size: 16 num training data 2000
accuracy: 0.513
 
Elapsed time is 11.742112 seconds.
patch size: 16 num training data 5000
accuracy: 0.516
 
Elapsed time is 11.773962 seconds.
patch size: 16 num training data 10000
accuracy: 0.524
 
Elapsed time is 11.758021 seconds.
patch size: 16 num training data 15000
accuracy: 0.528
 
Elapsed time is 11.814486 seconds.
patch size: 16 num training data 20000
accuracy: 0.529
 
Elapsed time is 11.674081 seconds.
patch size: 16 num training data 30000
accuracy: 0.536
 
Elapsed time is 11.751229 seconds.
patch size: 16 num training data 35000
accuracy: 0.54
 
Elapsed time is 11.732280 seconds.
patch size: 32 num training data 500
accuracy: 0.544
 
Elapsed time is 11.675926 seconds.
patch size: 32 num training data 2000
accuracy: 0.525
 
Elapsed time is 12.019335 seconds.
patch size: 32 num training data 5000
accuracy: 0.553
 
Elapsed time is 11.693313 seconds.
patch size: 32 num training data 10000
accuracy: 0.585
 
Elapsed time is 11.725156 seconds.
patch size: 32 num training data 15000
accuracy: 0.596
 
Elapsed time is 11.838653 seconds.
patch size: 32 num training data 20000
accuracy: 0.613
 
Elapsed time is 12.194602 seconds.
patch size: 32 num training data 30000
accuracy: 0.644
 
Elapsed time is 11.914811 seconds.
patch size: 32 num training data 35000
accuracy: 0.625
 
Elapsed time is 12.246411 seconds.
patch size: 64 num training data 500
accuracy: 0.623
 
Elapsed time is 12.095086 seconds.
patch size: 64 num training data 2000
accuracy: 0.641
 
Elapsed time is 11.737439 seconds.
patch size: 64 num training data 5000
accuracy: 0.653
 
Elapsed time is 11.720977 seconds.
patch size: 64 num training data 10000
accuracy: 0.677
 
Elapsed time is 11.664116 seconds.
patch size: 64 num training data 15000
accuracy: 0.674
 
Elapsed time is 11.690555 seconds.
patch size: 64 num training data 20000
accuracy: 0.669
 
Elapsed time is 11.666693 seconds.
patch size: 64 num training data 30000
accuracy: 0.691
 
Elapsed time is 11.740691 seconds.
patch size: 64 num training data 35000
accuracy: 0.584
 
Elapsed time is 11.819224 seconds.
patch size: 128 num training data 500
accuracy: 0.643
 
Elapsed time is 11.684305 seconds.
patch size: 128 num training data 2000
accuracy: 0.655
 
Elapsed time is 11.750081 seconds.
patch size: 128 num training data 5000
accuracy: 0.678
 
Elapsed time is 11.696368 seconds.
patch size: 128 num training data 10000
accuracy: 0.721
 
Elapsed time is 12.211719 seconds.
patch size: 128 num training data 15000
accuracy: 0.746
 
Elapsed time is 12.056634 seconds.
patch size: 128 num training data 20000
accuracy: 0.75
 
Elapsed time is 11.698787 seconds.
patch size: 128 num training data 30000
accuracy: 0.76
 
Elapsed time is 11.827137 seconds.
patch size: 128 num training data 35000
accuracy: 0.76
 
Elapsed time is 11.913356 seconds.
patch size: 256 num training data 500
accuracy: 0.667
 
Elapsed time is 11.751224 seconds.
patch size: 256 num training data 2000
accuracy: 0.686
 
Elapsed time is 11.867854 seconds.
patch size: 256 num training data 5000
accuracy: 0.687
 
Elapsed time is 11.954990 seconds.
patch size: 256 num training data 10000
accuracy: 0.735
 
Elapsed time is 11.847488 seconds.
patch size: 256 num training data 15000
accuracy: 0.739
 
Elapsed time is 11.747328 seconds.
patch size: 256 num training data 20000
accuracy: 0.765
 
Elapsed time is 11.727997 seconds.
patch size: 256 num training data 30000
accuracy: 0.784
 
Elapsed time is 11.768695 seconds.
patch size: 256 num training data 35000
accuracy: 0.775
 
diary off
