8x8: 
training size | accuracy
500           | 47.9%
2000          | 48.7%
5000          | 49%
10000         | 52.6%
15000         | 51.5%
20000         | 54.8%
30000         | 53.7%
35000         | 52.7

--------------------
16x16
training size | accuracy
500           | 52.1%
2000          | 51.2%
5000          | 52.9%
10000         | 52.7%
15000         | 53.8%
20000         | 55.6%
30000         | 55.2%
35000         | 56.7%

--------------------
32x32
training size | accuracy
500           | 53.6%
2000          | 54%
5000          | 55%
10000         | 54.5%
15000         | 57%
20000         | 57.4%
30000         | 58.5%
35000         | 58.4%

--------------------
64x64
training size | accuracy
500           | 57.6%
2000          | 58.5%
5000          | 60.1%
10000         | 64.3%
15000         | 66%
20000         | 67%
30000         | 67.6%
35000         | 68.8%

--------------------
128x128
training size | accuracy
500           | 63.4%
2000          | 62.2%
5000          | 68.1%
10000         | 71.4%
15000         | 70.1%
20000         | 71.8%
30000         | 74%
35000         | 74.6%

--------------------
256x256
training size | accuracy
500           | 69.1%
2000          | 68.4%
5000          | 73%
10000         | 76.1%
15000         | 77.5%
20000         | 78.9%
30000         | 79.7%
35000         | 80.2%